
{
  "list":
    {
      "lastUpdate": "02/10/18",
      "diaspora":
        {
          "population": "646.521",
          "activeUsers": "52.867",
          "podsNum": "208"
        },
      "friendica":
        {
          "population": "13.219",
          "activeUsers": "2.009",
          "podsNum": "320"
        },
      "hubzilla":
        {
          "population": "3.980",
          "activeUsers": "2.422",
          "podsNum": "190"
        },
      "ganggo":
        {
          "population": "128",
          "activeUsers": "80",
          "podsNum": "1"
        },
      "socialhome":
        {
          "population": "705",
          "activeUsers": "291",
          "podsNum": "4"
        },
      "mastodon":
        {
          "population": "2.004.005",
          "activeUsers": "1.180.843",
          "podsNum": "2.264"
        },
      "gnusocial":
        {
          "population": "16.347",
          "activeUsers": "",
          "podsNum": "161"
        },
      "pleroma":
        {
          "population": "3.479",
          "activeUsers": "",
          "podsNum": "305"
        },
      "misskey":
        {
          "population": "4.188",
          "activeUsers": "",
          "podsNum": "20"
        },
      "postactiv":
        {
          "population": "130",
          "activeUsers": "",
          "podsNum": "6"
        },
      "peertube":
        {
          "population": "5.669",
          "activeUsers": "",
          "podsNum": "198"
        },
      "aardwolf":
        {
          "population": "?",
          "activeUsers": "",
          "podsNum": "?"
        }
    }
}
